/Users/avinash/assignment/solutionassignment/src/main/java/org/avinash/assignment/CustomReentrantReadWriteLock.java
/Users/avinash/assignment/solutionassignment/src/main/java/org/avinash/assignment/ClientCustomReentrantReadWriteLock.java
/Users/avinash/assignment/solutionassignment/src/main/java/org/avinash/assignment/ICustomReentrantReadWriteLock.java
